0.99856,0.93757,0.056415,-0.29492
-0.64953,-0.41616,-1.1571,-0.036781
-0.48211,-0.36318,0.75258,0.87739
0.96566,-0.55339,-0.22785,1.2913
-1.0003,0.96492,0.50507,0.20068
0.3712,-0.64222,0.39033,-1.0204
