-0.99489,1.2072,-0.62849,0.46412
0.21888,0.15687,0.49104,-0.58017
-1.4421,-0.19507,-0.35585,-1.3652
-0.76149,0.22814,-0.90824,-1.1671
-0.54609,-1.2009,-1.7232,1.0307
0.011821,0.41075,0.16035,-0.73958
